#dim 2
#size proc time
4096 1 0.00038054
8192 1 0.000594616
16384 1 0.00104477
32768 1 0.00185153
65536 1 0.00344937
131072 1 0.00664065
262144 1 0.0128502
524288 1 0.0266389
1048576 1 0.0551754
2097152 1 0.109777
4194304 1 0.216218
8388608 1 0.438472
16777216 1 0.877093

4096 2 0.000507879
8192 2 0.000606823
16384 2 0.000839424
32768 2 0.001337
65536 2 0.00223637
131072 2 0.0039433
262144 2 0.00723181
524288 2 0.0136222
1048576 2 0.027749
2097152 2 0.0558712
4194304 2 0.113075
8388608 2 0.222566
16777216 2 0.43897

4096 4 0.000672293
8192 4 0.000597048
16384 4 0.000850964
32768 4 0.00119729
65536 4 0.00175142
131072 4 0.00283418
262144 4 0.00454745
524288 4 0.00809655
1048576 4 0.015542
2097152 4 0.0309334
4194304 4 0.0599234
8388608 4 0.11662
16777216 4 0.230197

4096 8 0.000973225
8192 8 0.00104418
16384 8 0.00125399
32768 8 0.00117464
65536 8 0.00156641
131072 8 0.00227776
262144 8 0.0034348
524288 8 0.00541263
1048576 8 0.00936456
2097152 8 0.0184835
4194304 8 0.0354158
8388608 8 0.0684289
16777216 8 0.133269

4096 16 0.000883818
8192 16 0.000840807
16384 16 0.000999022
32768 16 0.00138607
65536 16 0.00167956
131072 16 0.00236721
262144 16 0.00327601
524288 16 0.00470061
1048576 16 0.00733566
2097152 16 0.0119751
4194304 16 0.0212844
8388608 16 0.0386188
16777216 16 0.072277

4096 32 0.00135665
8192 32 0.00104365
16384 32 0.00129523
32768 32 0.0015563
65536 32 0.00184321
131072 32 0.00239382
262144 32 0.00306101
524288 32 0.00411582
1048576 32 0.00573196
2097152 32 0.00844965
4194304 32 0.0138937
8388608 32 0.0237004
16777216 32 0.0420284

4096 64 0.00514979
8192 64 0.00114875
16384 64 0.0013926
32768 64 0.00165892
65536 64 0.00211205
131072 64 0.00270219
262144 64 0.00339818
524288 64 0.00450115
1048576 64 0.0056488
2097152 64 0.00791454
4194304 64 0.0110142
8388608 64 0.0169489
16777216 64 0.0279529

4096 128 0.00638423
8192 128 0.00154734
16384 128 0.00200267
32768 128 0.00232501
65536 128 0.00263381
131072 128 0.00328441
262144 128 0.00406079
524288 128 0.00522976
1048576 128 0.006742
2097152 128 0.00906343
4194304 128 0.0110238
8388608 128 0.0151161
16777216 128 0.0221216

4096 256 0.0138309
8192 256 0.0018312
16384 256 0.00211458
32768 256 0.00262022
65536 256 0.00299349
131072 256 0.00388341
262144 256 0.00451298
524288 256 0.00548477
1048576 256 0.00772877
2097152 256 0.00918665
4194304 256 0.0115988
8388608 256 0.0144073
16777216 256 0.0195557

4096 512 0.0345535
8192 512 0.00258927
16384 512 0.00285945
32768 512 0.00309262
65536 512 0.00395026
131072 512 0.00504642
262144 512 0.0053874
524288 512 0.00650935
1048576 512 0.00783176
2097152 512 0.00948744
4194304 512 0.0117144
8388608 512 0.0143956
16777216 512 0.0182169
