#dim 3
#size proc time
4096 1 0.00452621
8192 1 0.00715036
16384 1 0.0116406
32768 1 0.0189735
65536 1 0.0317631
131072 1 0.0558985
262144 1 0.0994918
524288 1 0.182434
1048576 1 0.358345
2097152 1 0.729216
4194304 1 1.44316
8388608 1 3.05455
16777216 1 6.20089

4096 2 0.0156809
8192 2 0.00715218
16384 2 0.0112364
32768 2 0.0169692
65536 2 0.02701
131072 2 0.0442575
262144 2 0.0739378
524288 2 0.126891
1048576 2 0.226407
2097152 2 0.412432
4194304 2 0.805653
8388608 2 1.67151
16777216 2 3.14099

4096 4 0.0157187
8192 4 0.00690761
16384 4 0.0108133
32768 4 0.0164188
65536 4 0.0253182
131072 4 0.0387617
262144 4 0.0599734
524288 4 0.0982548
1048576 4 0.169362
2097152 4 0.269259
4194304 4 0.506286
8388608 4 0.868107
16777216 4 1.69612

4096 8 0.0160174
8192 8 0.00756059
16384 8 0.0107503
32768 8 0.0157874
65536 8 0.023869
131072 8 0.0362126
262144 8 0.0549316
524288 8 0.0858303
1048576 8 0.138881
2097152 8 0.219467
4194304 8 0.371987
8388608 8 0.623505
16777216 8 1.16105

4096 16 0.0163857
8192 16 0.00821438
16384 16 0.0119495
32768 16 0.0181643
65536 16 0.0267802
131072 16 0.0410396
262144 16 0.0602438
524288 16 0.0918904
1048576 16 0.138725
2097152 16 0.216988
4194304 16 0.335814
8388608 16 0.521805
16777216 16 0.837022

4096 32 0.0058888
8192 32 0.00835576
16384 32 0.0117095
32768 32 0.0176412
65536 32 0.0269642
131072 32 0.0391626
262144 32 0.0583462
524288 32 0.0873071
1048576 32 0.131812
2097152 32 0.200464
4194304 32 0.309581
8388608 32 0.468413
16777216 32 0.722387

4096 64 0.00653448
8192 64 0.00878282
16384 64 0.0129027
32768 64 0.0181559
65536 64 0.0269585
131072 64 0.039968
262144 64 0.0588662
524288 64 0.087138
1048576 64 0.131374
2097152 64 0.202875
4194304 64 0.292956
8388608 64 0.437366
16777216 64 0.650034

4096 128 0.00731397
8192 128 0.00978284
16384 128 0.0138242
32768 128 0.019721
65536 128 0.0294088
131072 128 0.0411392
262144 128 0.0606239
524288 128 0.0872818
1048576 128 0.130811
2097152 128 0.199494
4194304 128 0.292724
8388608 128 0.448683
16777216 128 0.653876

4096 256 0.00797868
8192 256 0.0108819
16384 256 0.0148142
32768 256 0.0209723
65536 256 0.0300169
131072 256 0.0435614
262144 256 0.0602528
524288 256 0.0896719
1048576 256 0.134187
2097152 256 0.198688
4194304 256 0.291689
8388608 256 0.444263
16777216 256 0.648351

4096 512 0.00872917
8192 512 0.011477
16384 512 0.0155745
32768 512 0.0230576
65536 512 0.0314752
131072 512 0.0453473
262144 512 0.0636362
524288 512 0.0915868
1048576 512 0.140164
2097152 512 0.205636
4194304 512 0.291401
8388608 512 0.431834
16777216 512 0.642425
