#dim 4
#size proc time
4096 1 0.0593898
8192 1 0.109016
16384 1 0.196298
32768 1 0.367106
65536 1 0.6967
131072 1 1.27475
262144 1 2.28425
524288 1 5.05005
1048576 1 10.0581
2097152 1 22.245
4194304 1 51.9323

4096 2 0.0616934
8192 2 0.091477
16384 2 0.150967
32768 2 0.269705
65536 2 0.521934
131072 2 0.8769
262144 2 1.48133
524288 2 2.90179
1048576 2 5.73433
2097152 2 11.5046
4194304 2 26.1912

4096 4 0.05672
8192 4 0.0787556
16384 4 0.13897
32768 4 0.236761
65536 4 0.414308
131072 4 0.702382
262144 4 1.22304
524288 4 2.14826
1048576 4 3.60608
2097152 4 6.41093
4194304 4 13.6494

4096 8 0.0553948
8192 8 0.0765173
16384 8 0.137195
32768 8 0.233959
65536 8 0.389685
131072 8 0.659097
262144 8 1.10648
524288 8 1.83236
1048576 8 3.03856
2097152 8 5.42555
4194304 8 8.855

4096 16 0.062415
8192 16 0.0908901
16384 16 0.153473
32768 16 0.257733
65536 16 0.420047
131072 16 0.684503
262144 16 1.09584
524288 16 1.78254
1048576 16 2.87644
2097152 16 4.77217
4194304 16 7.56262

4096 32 0.0499386
8192 32 0.0885776
16384 32 0.146129
32768 32 0.248685
65536 32 0.404438
131072 32 0.675149
262144 32 1.06493
524288 32 1.6825
1048576 32 2.73249
2097152 32 4.32278
4194304 32 6.86957

4096 64 0.0505978
8192 64 0.0888556
16384 64 0.146428
32768 64 0.249392
65536 64 0.400007
131072 64 0.690746
262144 64 1.08111
524288 64 1.69461
1048576 64 2.71638
2097152 64 4.29457
4194304 64 6.59377

4096 128 0.062623
8192 128 0.0932434
16384 128 0.162104
32768 128 0.267127
65536 128 0.426601
131072 128 0.677258
262144 128 1.07713
524288 128 1.70384
1048576 128 2.68571
2097152 128 4.21141
4194304 128 6.49307

4096 256 0.0594982
8192 256 0.0931143
16384 256 0.159137
32768 256 0.257701
65536 256 0.413299
131072 256 0.684138
262144 256 1.08813
524288 256 1.705855
1048576 256 2.71003
2097152 256 4.22144
4194304 256 6.47583

4096 512 0.0558746
8192 512 0.0909853
16384 512 0.15517
32768 512 0.250276
65536 512 0.402998
131072 512 0.69052
262144 512 1.09958
524288 512 1.71087
1048576 512 2.73036
2097152 512 4.24147
4194304 512 6.47259
